%YAML 1.1
%TAG !u! tag:unity3d.com,2011:
--- !u!1045 &1
EditorBuildSettings:
  m_ObjectHideFlags: 0
  serializedVersion: 2
  m_Scenes:
  - enabled: 1
    path: Assets/OutdoorsScene.unity
    guid: 8124e5870f4fd4c779e7a5f994e84ad1
  m_configObjects:
    com.unity.input.settings: {fileID: 11400000, guid: c9dc8e73b709cf244a187c60fff968a6,
      type: 2}
